<?xml version="1.0" encoding="UTF-8"?>
<dia:diagram xmlns:dia="http://www.lysator.liu.se/~alla/dia/">
  <dia:diagramdata>
    <dia:attribute name="background">
      <dia:color val="#ffffffff"/>
    </dia:attribute>
    <dia:attribute name="pagebreak">
      <dia:color val="#000099ff"/>
    </dia:attribute>
    <dia:attribute name="paper">
      <dia:composite type="paper">
        <dia:attribute name="name">
          <dia:string>#A4#</dia:string>
        </dia:attribute>
        <dia:attribute name="tmargin">
          <dia:real val="2.8222000598907471"/>
        </dia:attribute>
        <dia:attribute name="bmargin">
          <dia:real val="2.8222000598907471"/>
        </dia:attribute>
        <dia:attribute name="lmargin">
          <dia:real val="2.8222000598907471"/>
        </dia:attribute>
        <dia:attribute name="rmargin">
          <dia:real val="2.8222000598907471"/>
        </dia:attribute>
        <dia:attribute name="is_portrait">
          <dia:boolean val="true"/>
        </dia:attribute>
        <dia:attribute name="scaling">
          <dia:real val="1"/>
        </dia:attribute>
        <dia:attribute name="fitto">
          <dia:boolean val="false"/>
        </dia:attribute>
      </dia:composite>
    </dia:attribute>
    <dia:attribute name="grid">
      <dia:composite type="grid">
        <dia:attribute name="dynamic">
          <dia:boolean val="true"/>
        </dia:attribute>
        <dia:attribute name="width_x">
          <dia:real val="1"/>
        </dia:attribute>
        <dia:attribute name="width_y">
          <dia:real val="1"/>
        </dia:attribute>
        <dia:attribute name="visible_x">
          <dia:int val="1"/>
        </dia:attribute>
        <dia:attribute name="visible_y">
          <dia:int val="1"/>
        </dia:attribute>
        <dia:composite type="color"/>
      </dia:composite>
    </dia:attribute>
    <dia:attribute name="color">
      <dia:color val="#d8e5e5ff"/>
    </dia:attribute>
    <dia:attribute name="guides">
      <dia:composite type="guides">
        <dia:attribute name="hguides"/>
        <dia:attribute name="vguides"/>
      </dia:composite>
    </dia:attribute>
    <dia:attribute name="display">
      <dia:composite type="display">
        <dia:attribute name="antialiased">
          <dia:boolean val="false"/>
        </dia:attribute>
        <dia:attribute name="snap-to-grid">
          <dia:boolean val="true"/>
        </dia:attribute>
        <dia:attribute name="snap-to-object">
          <dia:boolean val="true"/>
        </dia:attribute>
        <dia:attribute name="show-grid">
          <dia:boolean val="true"/>
        </dia:attribute>
        <dia:attribute name="show-connection-points">
          <dia:boolean val="true"/>
        </dia:attribute>
      </dia:composite>
    </dia:attribute>
  </dia:diagramdata>
  <dia:layer name="Fondo" visible="true" connectable="true" active="true">
    <dia:object type="Flowchart - Box" version="0" id="O0">
      <dia:attribute name="obj_pos">
        <dia:point val="41.5,6.5"/>
      </dia:attribute>
      <dia:attribute name="obj_bb">
        <dia:rectangle val="41.45,6.45;46.8059,9.55"/>
      </dia:attribute>
      <dia:attribute name="elem_corner">
        <dia:point val="41.5,6.5"/>
      </dia:attribute>
      <dia:attribute name="elem_width">
        <dia:real val="5.255941162109373"/>
      </dia:attribute>
      <dia:attribute name="elem_height">
        <dia:real val="3"/>
      </dia:attribute>
      <dia:attribute name="show_background">
        <dia:boolean val="true"/>
      </dia:attribute>
      <dia:attribute name="padding">
        <dia:real val="0.5"/>
      </dia:attribute>
      <dia:attribute name="text">
        <dia:composite type="text">
          <dia:attribute name="string">
            <dia:string>#Monitor
Item clase B#</dia:string>
          </dia:attribute>
          <dia:attribute name="font">
            <dia:font family="sans" style="0" name="Helvetica"/>
          </dia:attribute>
          <dia:attribute name="height">
            <dia:real val="0.80000000000000004"/>
          </dia:attribute>
          <dia:attribute name="pos">
            <dia:point val="44.128,7.79405"/>
          </dia:attribute>
          <dia:attribute name="color">
            <dia:color val="#000000ff"/>
          </dia:attribute>
          <dia:attribute name="alignment">
            <dia:enum val="1"/>
          </dia:attribute>
        </dia:composite>
      </dia:attribute>
    </dia:object>
    <dia:object type="Flowchart - Box" version="0" id="O1">
      <dia:attribute name="obj_pos">
        <dia:point val="29.5,12"/>
      </dia:attribute>
      <dia:attribute name="obj_bb">
        <dia:rectangle val="29.45,11.95;35.4712,15.05"/>
      </dia:attribute>
      <dia:attribute name="elem_corner">
        <dia:point val="29.5,12"/>
      </dia:attribute>
      <dia:attribute name="elem_width">
        <dia:real val="5.9212500000000006"/>
      </dia:attribute>
      <dia:attribute name="elem_height">
        <dia:real val="3"/>
      </dia:attribute>
      <dia:attribute name="show_background">
        <dia:boolean val="true"/>
      </dia:attribute>
      <dia:attribute name="padding">
        <dia:real val="0.5"/>
      </dia:attribute>
      <dia:attribute name="text">
        <dia:composite type="text">
          <dia:attribute name="string">
            <dia:string>#Main
Unidad clase A#</dia:string>
          </dia:attribute>
          <dia:attribute name="font">
            <dia:font family="sans" style="0" name="Helvetica"/>
          </dia:attribute>
          <dia:attribute name="height">
            <dia:real val="0.80000000000000004"/>
          </dia:attribute>
          <dia:attribute name="pos">
            <dia:point val="32.4606,13.2941"/>
          </dia:attribute>
          <dia:attribute name="color">
            <dia:color val="#000000ff"/>
          </dia:attribute>
          <dia:attribute name="alignment">
            <dia:enum val="1"/>
          </dia:attribute>
        </dia:composite>
      </dia:attribute>
    </dia:object>
    <dia:object type="Flowchart - Box" version="0" id="O2">
      <dia:attribute name="obj_pos">
        <dia:point val="36,12"/>
      </dia:attribute>
      <dia:attribute name="obj_bb">
        <dia:rectangle val="35.95,11.95;42.05,15.05"/>
      </dia:attribute>
      <dia:attribute name="elem_corner">
        <dia:point val="36,12"/>
      </dia:attribute>
      <dia:attribute name="elem_width">
        <dia:real val="6"/>
      </dia:attribute>
      <dia:attribute name="elem_height">
        <dia:real val="3"/>
      </dia:attribute>
      <dia:attribute name="show_background">
        <dia:boolean val="true"/>
      </dia:attribute>
      <dia:attribute name="padding">
        <dia:real val="0.5"/>
      </dia:attribute>
      <dia:attribute name="text">
        <dia:composite type="text">
          <dia:attribute name="string">
            <dia:string>#DataEngine
Unidad clase B#</dia:string>
          </dia:attribute>
          <dia:attribute name="font">
            <dia:font family="sans" style="0" name="Helvetica"/>
          </dia:attribute>
          <dia:attribute name="height">
            <dia:real val="0.80000000000000004"/>
          </dia:attribute>
          <dia:attribute name="pos">
            <dia:point val="39,13.2941"/>
          </dia:attribute>
          <dia:attribute name="color">
            <dia:color val="#000000ff"/>
          </dia:attribute>
          <dia:attribute name="alignment">
            <dia:enum val="1"/>
          </dia:attribute>
        </dia:composite>
      </dia:attribute>
    </dia:object>
    <dia:object type="Flowchart - Box" version="0" id="O3">
      <dia:attribute name="obj_pos">
        <dia:point val="42.5,12"/>
      </dia:attribute>
      <dia:attribute name="obj_bb">
        <dia:rectangle val="42.45,11.95;52.05,15.05"/>
      </dia:attribute>
      <dia:attribute name="elem_corner">
        <dia:point val="42.5,12"/>
      </dia:attribute>
      <dia:attribute name="elem_width">
        <dia:real val="9.5"/>
      </dia:attribute>
      <dia:attribute name="elem_height">
        <dia:real val="3"/>
      </dia:attribute>
      <dia:attribute name="show_background">
        <dia:boolean val="true"/>
      </dia:attribute>
      <dia:attribute name="padding">
        <dia:real val="0.5"/>
      </dia:attribute>
      <dia:attribute name="text">
        <dia:composite type="text">
          <dia:attribute name="string">
            <dia:string>#DatakeeperQueriesParser
Unidad clase B#</dia:string>
          </dia:attribute>
          <dia:attribute name="font">
            <dia:font family="sans" style="0" name="Helvetica"/>
          </dia:attribute>
          <dia:attribute name="height">
            <dia:real val="0.80000000000000004"/>
          </dia:attribute>
          <dia:attribute name="pos">
            <dia:point val="47.25,13.2941"/>
          </dia:attribute>
          <dia:attribute name="color">
            <dia:color val="#000000ff"/>
          </dia:attribute>
          <dia:attribute name="alignment">
            <dia:enum val="1"/>
          </dia:attribute>
        </dia:composite>
      </dia:attribute>
    </dia:object>
    <dia:object type="Flowchart - Box" version="0" id="O4">
      <dia:attribute name="obj_pos">
        <dia:point val="52.5,12"/>
      </dia:attribute>
      <dia:attribute name="obj_bb">
        <dia:rectangle val="52.45,11.95;58.55,15.05"/>
      </dia:attribute>
      <dia:attribute name="elem_corner">
        <dia:point val="52.5,12"/>
      </dia:attribute>
      <dia:attribute name="elem_width">
        <dia:real val="6"/>
      </dia:attribute>
      <dia:attribute name="elem_height">
        <dia:real val="3"/>
      </dia:attribute>
      <dia:attribute name="show_background">
        <dia:boolean val="true"/>
      </dia:attribute>
      <dia:attribute name="padding">
        <dia:real val="0.5"/>
      </dia:attribute>
      <dia:attribute name="text">
        <dia:composite type="text">
          <dia:attribute name="string">
            <dia:string>#Settings
Unidad clase B#</dia:string>
          </dia:attribute>
          <dia:attribute name="font">
            <dia:font family="sans" style="0" name="Helvetica"/>
          </dia:attribute>
          <dia:attribute name="height">
            <dia:real val="0.80000000000000004"/>
          </dia:attribute>
          <dia:attribute name="pos">
            <dia:point val="55.5,13.2941"/>
          </dia:attribute>
          <dia:attribute name="color">
            <dia:color val="#000000ff"/>
          </dia:attribute>
          <dia:attribute name="alignment">
            <dia:enum val="1"/>
          </dia:attribute>
        </dia:composite>
      </dia:attribute>
    </dia:object>
    <dia:object type="Standard - ZigZagLine" version="1" id="O5">
      <dia:attribute name="obj_pos">
        <dia:point val="44.128,9.5"/>
      </dia:attribute>
      <dia:attribute name="obj_bb">
        <dia:rectangle val="32.1297,9.45;44.178,12.05"/>
      </dia:attribute>
      <dia:attribute name="orth_points">
        <dia:point val="44.128,9.5"/>
        <dia:point val="44.128,10.75"/>
        <dia:point val="32.4606,10.75"/>
        <dia:point val="32.4606,12"/>
      </dia:attribute>
      <dia:attribute name="orth_orient">
        <dia:enum val="1"/>
        <dia:enum val="0"/>
        <dia:enum val="1"/>
      </dia:attribute>
      <dia:attribute name="autorouting">
        <dia:boolean val="true"/>
      </dia:attribute>
      <dia:attribute name="end_arrow">
        <dia:enum val="1"/>
      </dia:attribute>
      <dia:attribute name="end_arrow_length">
        <dia:real val="0.5"/>
      </dia:attribute>
      <dia:attribute name="end_arrow_width">
        <dia:real val="0.5"/>
      </dia:attribute>
      <dia:connections>
        <dia:connection handle="0" to="O0" connection="13"/>
        <dia:connection handle="1" to="O1" connection="2"/>
      </dia:connections>
    </dia:object>
    <dia:object type="Standard - ZigZagLine" version="1" id="O6">
      <dia:attribute name="obj_pos">
        <dia:point val="44.128,9.55038"/>
      </dia:attribute>
      <dia:attribute name="obj_bb">
        <dia:rectangle val="38.6691,9.50038;44.178,12.05"/>
      </dia:attribute>
      <dia:attribute name="orth_points">
        <dia:point val="44.128,9.55038"/>
        <dia:point val="44.128,10.7752"/>
        <dia:point val="39,10.7752"/>
        <dia:point val="39,12"/>
      </dia:attribute>
      <dia:attribute name="orth_orient">
        <dia:enum val="1"/>
        <dia:enum val="0"/>
        <dia:enum val="1"/>
      </dia:attribute>
      <dia:attribute name="autorouting">
        <dia:boolean val="true"/>
      </dia:attribute>
      <dia:attribute name="end_arrow">
        <dia:enum val="1"/>
      </dia:attribute>
      <dia:attribute name="end_arrow_length">
        <dia:real val="0.5"/>
      </dia:attribute>
      <dia:attribute name="end_arrow_width">
        <dia:real val="0.5"/>
      </dia:attribute>
      <dia:connections>
        <dia:connection handle="0" to="O0" connection="16"/>
        <dia:connection handle="1" to="O2" connection="2"/>
      </dia:connections>
    </dia:object>
    <dia:object type="Standard - ZigZagLine" version="1" id="O7">
      <dia:attribute name="obj_pos">
        <dia:point val="44.128,9.55038"/>
      </dia:attribute>
      <dia:attribute name="obj_bb">
        <dia:rectangle val="44.078,9.50038;47.5809,12.05"/>
      </dia:attribute>
      <dia:attribute name="orth_points">
        <dia:point val="44.128,9.55038"/>
        <dia:point val="44.128,10.7752"/>
        <dia:point val="47.25,10.7752"/>
        <dia:point val="47.25,12"/>
      </dia:attribute>
      <dia:attribute name="orth_orient">
        <dia:enum val="1"/>
        <dia:enum val="0"/>
        <dia:enum val="1"/>
      </dia:attribute>
      <dia:attribute name="autorouting">
        <dia:boolean val="true"/>
      </dia:attribute>
      <dia:attribute name="end_arrow">
        <dia:enum val="1"/>
      </dia:attribute>
      <dia:attribute name="end_arrow_length">
        <dia:real val="0.5"/>
      </dia:attribute>
      <dia:attribute name="end_arrow_width">
        <dia:real val="0.5"/>
      </dia:attribute>
      <dia:connections>
        <dia:connection handle="0" to="O0" connection="16"/>
        <dia:connection handle="1" to="O3" connection="2"/>
      </dia:connections>
    </dia:object>
    <dia:object type="Standard - ZigZagLine" version="1" id="O8">
      <dia:attribute name="obj_pos">
        <dia:point val="44.128,9.5"/>
      </dia:attribute>
      <dia:attribute name="obj_bb">
        <dia:rectangle val="44.078,9.45;55.8309,12.05"/>
      </dia:attribute>
      <dia:attribute name="orth_points">
        <dia:point val="44.128,9.5"/>
        <dia:point val="44.128,10.75"/>
        <dia:point val="55.5,10.75"/>
        <dia:point val="55.5,12"/>
      </dia:attribute>
      <dia:attribute name="orth_orient">
        <dia:enum val="1"/>
        <dia:enum val="0"/>
        <dia:enum val="1"/>
      </dia:attribute>
      <dia:attribute name="autorouting">
        <dia:boolean val="true"/>
      </dia:attribute>
      <dia:attribute name="end_arrow">
        <dia:enum val="1"/>
      </dia:attribute>
      <dia:attribute name="end_arrow_length">
        <dia:real val="0.5"/>
      </dia:attribute>
      <dia:attribute name="end_arrow_width">
        <dia:real val="0.5"/>
      </dia:attribute>
      <dia:connections>
        <dia:connection handle="0" to="O0" connection="13"/>
        <dia:connection handle="1" to="O4" connection="2"/>
      </dia:connections>
    </dia:object>
  </dia:layer>
</dia:diagram>
